(kicad_sch (version 20221206) (generator eeschema)

  (uuid aa96d630-a34b-4163-9788-cda976b8bddb)

  (paper "A4")

  (title_block
    (title "X90 USB PD & Type-A Charger")
    (date "2020-08-10")
    (rev "A")
  )

  (lib_symbols
    (symbol "Device:C" (pin_numbers hide) (pin_names (offset 0.254)) (in_bom yes) (on_board yes)
      (property "Reference" "C" (at 0.635 2.54 0)
        (effects (font (size 1.27 1.27)) (justify left))
      )
      (property "Value" "C" (at 0.635 -2.54 0)
        (effects (font (size 1.27 1.27)) (justify left))
      )
      (property "Footprint" "" (at 0.9652 -3.81 0)
        (effects (font (size 1.27 1.27)) hide)
      )
      (property "Datasheet" "~" (at 0 0 0)
        (effects (font (size 1.27 1.27)) hide)
      )
      (property "ki_keywords" "cap capacitor" (at 0 0 0)
        (effects (font (size 1.27 1.27)) hide)
      )
      (property "ki_description" "Unpolarized capacitor" (at 0 0 0)
        (effects (font (size 1.27 1.27)) hide)
      )
      (property "ki_fp_filters" "C_*" (at 0 0 0)
        (effects (font (size 1.27 1.27)) hide)
      )
      (symbol "C_0_1"
        (polyline
          (pts
            (xy -2.032 -0.762)
            (xy 2.032 -0.762)
          )
          (stroke (width 0.508) (type default))
          (fill (type none))
        )
        (polyline
          (pts
            (xy -2.032 0.762)
            (xy 2.032 0.762)
          )
          (stroke (width 0.508) (type default))
          (fill (type none))
        )
      )
      (symbol "C_1_1"
        (pin passive line (at 0 3.81 270) (length 2.794)
          (name "~" (effects (font (size 1.27 1.27))))
          (number "1" (effects (font (size 1.27 1.27))))
        )
        (pin passive line (at 0 -3.81 90) (length 2.794)
          (name "~" (effects (font (size 1.27 1.27))))
          (number "2" (effects (font (size 1.27 1.27))))
        )
      )
    )
    (symbol "Device:L" (pin_numbers hide) (pin_names hide) (in_bom yes) (on_board yes)
      (property "Reference" "L" (at -1.27 0 90)
        (effects (font (size 1.27 1.27)))
      )
      (property "Value" "L" (at 1.905 0 90)
        (effects (font (size 1.27 1.27)))
      )
      (property "Footprint" "" (at 0 0 0)
        (effects (font (size 1.27 1.27)) hide)
      )
      (property "Datasheet" "~" (at 0 0 0)
        (effects (font (size 1.27 1.27)) hide)
      )
      (property "ki_keywords" "inductor choke coil reactor magnetic" (at 0 0 0)
        (effects (font (size 1.27 1.27)) hide)
      )
      (property "ki_description" "Inductor" (at 0 0 0)
        (effects (font (size 1.27 1.27)) hide)
      )
      (property "ki_fp_filters" "Choke_* *Coil* Inductor_* L_*" (at 0 0 0)
        (effects (font (size 1.27 1.27)) hide)
      )
      (symbol "L_0_1"
        (arc (start 0 -2.54) (mid 0.6323 -1.905) (end 0 -1.27)
          (stroke (width 0) (type default))
          (fill (type none))
        )
        (arc (start 0 -1.27) (mid 0.6323 -0.635) (end 0 0)
          (stroke (width 0) (type default))
          (fill (type none))
        )
        (arc (start 0 0) (mid 0.6323 0.635) (end 0 1.27)
          (stroke (width 0) (type default))
          (fill (type none))
        )
        (arc (start 0 1.27) (mid 0.6323 1.905) (end 0 2.54)
          (stroke (width 0) (type default))
          (fill (type none))
        )
      )
      (symbol "L_1_1"
        (pin passive line (at 0 3.81 270) (length 1.27)
          (name "1" (effects (font (size 1.27 1.27))))
          (number "1" (effects (font (size 1.27 1.27))))
        )
        (pin passive line (at 0 -3.81 90) (length 1.27)
          (name "2" (effects (font (size 1.27 1.27))))
          (number "2" (effects (font (size 1.27 1.27))))
        )
      )
    )
    (symbol "Regulator_Switching:TPS62177DQC" (in_bom yes) (on_board yes)
      (property "Reference" "U" (at -7.62 11.43 0)
        (effects (font (size 1.27 1.27)) (justify left))
      )
      (property "Value" "TPS62177DQC" (at -1.27 11.43 0)
        (effects (font (size 1.27 1.27)) (justify left))
      )
      (property "Footprint" "Package_SON:WSON-10-1EP_2x3mm_P0.5mm_EP0.84x2.4mm_ThermalVias" (at 3.81 -11.43 0)
        (effects (font (size 1.27 1.27)) (justify left) hide)
      )
      (property "Datasheet" "http://www.ti.com/lit/ds/symlink/tps62177.pdf" (at 0 13.97 0)
        (effects (font (size 1.27 1.27)) hide)
      )
      (property "ki_keywords" "step-down dc-dc buck regulator" (at 0 0 0)
        (effects (font (size 1.27 1.27)) hide)
      )
      (property "ki_description" "500mA Step-Down Conveter with Sleep Mode, fixed 3.3V Output Voltage, 4.75-28V input voltage, WSON-10" (at 0 0 0)
        (effects (font (size 1.27 1.27)) hide)
      )
      (property "ki_fp_filters" "WSON*EP*2x3mm*P0.5mm*" (at 0 0 0)
        (effects (font (size 1.27 1.27)) hide)
      )
      (symbol "TPS62177DQC_0_1"
        (rectangle (start -7.62 10.16) (end 7.62 -10.16)
          (stroke (width 0.254) (type default))
          (fill (type background))
        )
      )
      (symbol "TPS62177DQC_1_1"
        (pin power_in line (at 0 -12.7 90) (length 2.54)
          (name "PGND" (effects (font (size 1.27 1.27))))
          (number "1" (effects (font (size 1.27 1.27))))
        )
        (pin input line (at 10.16 5.08 180) (length 2.54)
          (name "VOS" (effects (font (size 1.27 1.27))))
          (number "10" (effects (font (size 1.27 1.27))))
        )
        (pin power_in line (at -2.54 -12.7 90) (length 2.54)
          (name "PAD" (effects (font (size 1.27 1.27))))
          (number "11" (effects (font (size 1.27 1.27))))
        )
        (pin power_in line (at -10.16 7.62 0) (length 2.54)
          (name "VIN" (effects (font (size 1.27 1.27))))
          (number "2" (effects (font (size 1.27 1.27))))
        )
        (pin input line (at -10.16 5.08 0) (length 2.54)
          (name "EN" (effects (font (size 1.27 1.27))))
          (number "3" (effects (font (size 1.27 1.27))))
        )
        (pin passive line (at -5.08 -12.7 90) (length 2.54)
          (name "NC" (effects (font (size 1.27 1.27))))
          (number "4" (effects (font (size 1.27 1.27))))
        )
        (pin input line (at 10.16 2.54 180) (length 2.54)
          (name "FB" (effects (font (size 1.27 1.27))))
          (number "5" (effects (font (size 1.27 1.27))))
        )
        (pin power_in line (at 2.54 -12.7 90) (length 2.54)
          (name "AGND" (effects (font (size 1.27 1.27))))
          (number "6" (effects (font (size 1.27 1.27))))
        )
        (pin output line (at -10.16 -5.08 0) (length 2.54)
          (name "PG" (effects (font (size 1.27 1.27))))
          (number "7" (effects (font (size 1.27 1.27))))
        )
        (pin input line (at -10.16 0 0) (length 2.54)
          (name "~SLEEP" (effects (font (size 1.27 1.27))))
          (number "8" (effects (font (size 1.27 1.27))))
        )
        (pin power_out line (at 10.16 7.62 180) (length 2.54)
          (name "SW" (effects (font (size 1.27 1.27))))
          (number "9" (effects (font (size 1.27 1.27))))
        )
      )
    )
    (symbol "power:GND" (power) (pin_names (offset 0)) (in_bom yes) (on_board yes)
      (property "Reference" "#PWR" (at 0 -6.35 0)
        (effects (font (size 1.27 1.27)) hide)
      )
      (property "Value" "GND" (at 0 -3.81 0)
        (effects (font (size 1.27 1.27)))
      )
      (property "Footprint" "" (at 0 0 0)
        (effects (font (size 1.27 1.27)) hide)
      )
      (property "Datasheet" "" (at 0 0 0)
        (effects (font (size 1.27 1.27)) hide)
      )
      (property "ki_keywords" "power-flag" (at 0 0 0)
        (effects (font (size 1.27 1.27)) hide)
      )
      (property "ki_description" "Power symbol creates a global label with name \"GND\" , ground" (at 0 0 0)
        (effects (font (size 1.27 1.27)) hide)
      )
      (symbol "GND_0_1"
        (polyline
          (pts
            (xy 0 0)
            (xy 0 -1.27)
            (xy 1.27 -1.27)
            (xy 0 -2.54)
            (xy -1.27 -1.27)
            (xy 0 -1.27)
          )
          (stroke (width 0) (type default))
          (fill (type none))
        )
      )
      (symbol "GND_1_1"
        (pin power_in line (at 0 0 270) (length 0) hide
          (name "GND" (effects (font (size 1.27 1.27))))
          (number "1" (effects (font (size 1.27 1.27))))
        )
      )
    )
  )

  (junction (at 156.21 72.39) (diameter 1.016) (color 0 0 0 0)
    (uuid 5894a9bf-ca9c-406e-a909-da34e9dbd5c4)
  )
  (junction (at 95.25 69.85) (diameter 1.016) (color 0 0 0 0)
    (uuid 6a3aac14-e57c-49cd-ac67-e411212cffbe)
  )
  (junction (at 123.19 92.71) (diameter 1.016) (color 0 0 0 0)
    (uuid 8aa5a6c9-21fe-4028-b30e-4c4ffeeb7a27)
  )
  (junction (at 156.21 69.85) (diameter 1.016) (color 0 0 0 0)
    (uuid 99446c26-c494-4068-8c98-2bf574bd0ecd)
  )
  (junction (at 138.43 97.79) (diameter 1.016) (color 0 0 0 0)
    (uuid b237d228-f945-4e96-90a6-1f34e2bc0610)
  )
  (junction (at 110.49 69.85) (diameter 1.016) (color 0 0 0 0)
    (uuid b2a930fa-18ff-4d8d-ac3e-8e85e1b23fad)
  )
  (junction (at 125.73 92.71) (diameter 1.016) (color 0 0 0 0)
    (uuid d7a34f6a-64e4-4184-8b8e-74ea9a437afb)
  )
  (junction (at 123.19 97.79) (diameter 1.016) (color 0 0 0 0)
    (uuid f20e571e-ac52-48d4-9703-457c2efebab3)
  )

  (no_connect (at 120.65 90.17) (uuid 25f023fa-0867-4fc7-bd78-aee1857c4a31))

  (wire (pts (xy 103.886 58.42) (xy 156.21 58.42))
    (stroke (width 0) (type solid))
    (uuid 02d2eb3e-1499-4e4f-8c95-dcb14ef03a09)
  )
  (wire (pts (xy 135.89 72.39) (xy 156.21 72.39))
    (stroke (width 0) (type solid))
    (uuid 11b2b225-ad2f-433c-ae0d-cc59df9110cf)
  )
  (wire (pts (xy 123.19 97.79) (xy 95.25 97.79))
    (stroke (width 0) (type solid))
    (uuid 2486754a-6c2a-420c-ac5f-6dabcd3dd90c)
  )
  (wire (pts (xy 114.935 82.55) (xy 114.935 92.71))
    (stroke (width 0) (type solid))
    (uuid 3afc4ec6-28b9-4c14-b7db-106b4ef18769)
  )
  (wire (pts (xy 115.57 72.39) (xy 110.49 72.39))
    (stroke (width 0) (type solid))
    (uuid 456c5da5-b430-438d-a2b0-c2be5c4b0881)
  )
  (wire (pts (xy 68.58 69.85) (xy 95.25 69.85))
    (stroke (width 0) (type solid))
    (uuid 456e3ca6-4e79-46e4-8475-ee26c9b7c66f)
  )
  (wire (pts (xy 156.21 72.39) (xy 156.21 82.296))
    (stroke (width 0) (type solid))
    (uuid 45dd241d-3a96-42b5-805b-ae78a67de912)
  )
  (wire (pts (xy 123.19 97.79) (xy 138.43 97.79))
    (stroke (width 0) (type solid))
    (uuid 4785235f-4cfd-41b9-b09a-8f27f9a06f23)
  )
  (wire (pts (xy 95.25 90.678) (xy 95.25 97.79))
    (stroke (width 0) (type solid))
    (uuid 4a5e5bb5-288c-4067-8ae9-4458d0569d0c)
  )
  (wire (pts (xy 103.886 58.42) (xy 103.886 77.47))
    (stroke (width 0) (type solid))
    (uuid 4cdff637-10be-49d2-a420-ee2f363a700b)
  )
  (wire (pts (xy 110.49 69.85) (xy 115.57 69.85))
    (stroke (width 0) (type solid))
    (uuid 4dbd3584-48da-40b0-84c4-4bf73f4fc87b)
  )
  (wire (pts (xy 95.25 69.85) (xy 95.25 83.058))
    (stroke (width 0) (type solid))
    (uuid 6ed1577e-c892-49f3-802c-ea8466d202dc)
  )
  (wire (pts (xy 123.19 90.17) (xy 123.19 92.71))
    (stroke (width 0) (type solid))
    (uuid 7d8accf6-44b1-49a1-9bf5-22350ed1c85f)
  )
  (wire (pts (xy 123.19 92.71) (xy 123.19 97.79))
    (stroke (width 0) (type solid))
    (uuid 80cf84d9-341b-4825-ad57-7e51b349b70d)
  )
  (wire (pts (xy 153.67 69.85) (xy 156.21 69.85))
    (stroke (width 0) (type solid))
    (uuid 861aaf21-00a3-4fe4-a90e-591fc85be3b0)
  )
  (wire (pts (xy 125.73 90.17) (xy 125.73 92.71))
    (stroke (width 0) (type solid))
    (uuid 8bed78e4-0103-4776-a1ef-06cb46820b68)
  )
  (wire (pts (xy 125.73 92.71) (xy 128.27 92.71))
    (stroke (width 0) (type solid))
    (uuid 8d93ec33-c343-43de-9eb6-eb5244080cdd)
  )
  (wire (pts (xy 156.21 58.42) (xy 156.21 69.85))
    (stroke (width 0) (type solid))
    (uuid 9797a541-a1a8-47b8-b890-ce4e7a034d8f)
  )
  (wire (pts (xy 135.89 74.93) (xy 138.43 74.93))
    (stroke (width 0) (type solid))
    (uuid a5db5d79-b9ed-43ef-918e-10d79bc610ff)
  )
  (wire (pts (xy 128.27 90.17) (xy 128.27 92.71))
    (stroke (width 0) (type solid))
    (uuid a6216bd3-20e3-46db-9d00-fb24df151065)
  )
  (wire (pts (xy 103.886 77.47) (xy 115.57 77.47))
    (stroke (width 0) (type solid))
    (uuid a6acf7bc-87cf-4065-98a2-5ad7a5bbb5fa)
  )
  (wire (pts (xy 156.21 89.916) (xy 156.21 97.79))
    (stroke (width 0) (type solid))
    (uuid a77a19cb-0b32-4f3a-9216-c2942475bb22)
  )
  (wire (pts (xy 156.21 69.85) (xy 156.21 72.39))
    (stroke (width 0) (type solid))
    (uuid ae7c70df-73f6-400a-84ac-c7ffcd53c5e5)
  )
  (wire (pts (xy 115.57 82.55) (xy 114.935 82.55))
    (stroke (width 0) (type solid))
    (uuid b8d3a810-2ed2-4956-8257-e708730d98e8)
  )
  (wire (pts (xy 110.49 72.39) (xy 110.49 69.85))
    (stroke (width 0) (type solid))
    (uuid ba5350eb-3eac-45a2-ad1c-560b07c2a696)
  )
  (wire (pts (xy 135.89 69.85) (xy 146.05 69.85))
    (stroke (width 0) (type solid))
    (uuid c62a62e6-6bd3-4eb6-81c4-cd42002db830)
  )
  (wire (pts (xy 156.21 69.85) (xy 161.29 69.85))
    (stroke (width 0) (type solid))
    (uuid c6f20cd5-97b0-4470-bc9f-25aaa6bc90e2)
  )
  (wire (pts (xy 123.19 92.71) (xy 125.73 92.71))
    (stroke (width 0) (type solid))
    (uuid c79afba6-cf38-466b-9945-0f1cfd6e97b8)
  )
  (wire (pts (xy 138.43 74.93) (xy 138.43 97.79))
    (stroke (width 0) (type solid))
    (uuid cb19dfed-e7a4-4b62-9281-3752503a0048)
  )
  (wire (pts (xy 123.19 97.79) (xy 123.19 100.33))
    (stroke (width 0) (type solid))
    (uuid cda7cc89-5ab0-4b4a-b877-cedd46d144d5)
  )
  (wire (pts (xy 138.43 97.79) (xy 156.21 97.79))
    (stroke (width 0) (type solid))
    (uuid e6a75bd9-dcc1-4b9a-b2b5-40321e5bc5c8)
  )
  (wire (pts (xy 114.935 92.71) (xy 123.19 92.71))
    (stroke (width 0) (type solid))
    (uuid e83fb120-77a7-4beb-ab0e-7719ff4685e8)
  )
  (wire (pts (xy 95.25 69.85) (xy 110.49 69.85))
    (stroke (width 0) (type solid))
    (uuid f97bd67b-57f4-41f4-b393-3103f978bd63)
  )

  (global_label "PP3V3" (shape output) (at 161.29 69.85 0)
    (effects (font (size 1.27 1.27)) (justify left))
    (uuid 61e2b415-e5f5-4887-b84c-e7d1ff89bb5c)
    (property "Intersheetrefs" "${INTERSHEET_REFS}" (at 0 0 0)
      (effects (font (size 1.27 1.27)) hide)
    )
  )
  (global_label "PPIN" (shape input) (at 68.58 69.85 180)
    (effects (font (size 1.27 1.27)) (justify right))
    (uuid 870ce45f-4b90-4159-afcf-a641821b0fe8)
    (property "Intersheetrefs" "${INTERSHEET_REFS}" (at 0 0 0)
      (effects (font (size 1.27 1.27)) hide)
    )
  )

  (symbol (lib_id "power:GND") (at 123.19 100.33 0) (unit 1)
    (in_bom yes) (on_board yes) (dnp no)
    (uuid 80fabbec-ed93-468b-b2ed-aafcbc416cde)
    (property "Reference" "#PWR01" (at 123.19 100.33 0)
      (effects (font (size 1.27 1.27)) hide)
    )
    (property "Value" "GND" (at 123.19 100.33 0)
      (effects (font (size 1.27 1.27)) hide)
    )
    (property "Footprint" "" (at 123.19 100.33 0)
      (effects (font (size 1.27 1.27)) hide)
    )
    (property "Datasheet" "" (at 123.19 100.33 0)
      (effects (font (size 1.27 1.27)) hide)
    )
    (pin "1" (uuid b7d46a78-0820-49e7-906d-5183210ffe20))
    (instances
      (project "504342-0019"
        (path "/0840d81d-806e-424c-8096-8b022e85cd22/9c1c14c4-bbc8-482e-962c-874daa331404"
          (reference "#PWR01") (unit 1)
        )
      )
    )
  )

  (symbol (lib_id "Device:C") (at 95.25 86.868 0) (unit 1)
    (in_bom yes) (on_board yes) (dnp no)
    (uuid 98291ee5-d510-46fe-a265-f45f159f8386)
    (property "Reference" "C1" (at 97.79 85.598 0)
      (effects (font (size 1.27 1.27)) (justify left))
    )
    (property "Value" "2.2u" (at 97.79 86.868 0)
      (effects (font (size 1.27 1.27)) (justify left))
    )
    (property "Footprint" "Capacitor_SMD:C_0603_1608Metric" (at 97.79 88.138 0)
      (effects (font (size 0.63 0.63)) (justify left))
    )
    (property "Datasheet" "~" (at 95.25 86.868 0)
      (effects (font (size 1.27 1.27)) hide)
    )
    (property "MPN" "C1206C225M5RECTU" (at 95.25 86.868 0)
      (effects (font (size 1.27 1.27)) hide)
    )
    (property "Voltage" "50V" (at 95.25 86.868 0)
      (effects (font (size 1.27 1.27)) hide)
    )
    (pin "1" (uuid 910a0bef-0633-46bb-8e63-cff27a88955f))
    (pin "2" (uuid 256c8a20-8694-4a0d-84f8-8cca9cf47d67))
    (instances
      (project "504342-0019"
        (path "/0840d81d-806e-424c-8096-8b022e85cd22/9c1c14c4-bbc8-482e-962c-874daa331404"
          (reference "C1") (unit 1)
        )
      )
    )
  )

  (symbol (lib_id "Device:C") (at 156.21 86.106 0) (unit 1)
    (in_bom yes) (on_board yes) (dnp no)
    (uuid be288894-4d23-4b5a-806f-9eb19fecaa58)
    (property "Reference" "C2" (at 160.02 83.566 0)
      (effects (font (size 1.27 1.27)) (justify left))
    )
    (property "Value" "22u" (at 160.02 86.106 0)
      (effects (font (size 1.27 1.27)) (justify left))
    )
    (property "Footprint" "Capacitor_SMD:C_1206_3216Metric" (at 160.02 87.376 0)
      (effects (font (size 0.63 0.63)) (justify left))
    )
    (property "Datasheet" "~" (at 156.21 86.106 0)
      (effects (font (size 1.27 1.27)) hide)
    )
    (property "Voltage" "25V" (at 156.21 86.106 0)
      (effects (font (size 1.27 1.27)) hide)
    )
    (property "MPN" "TMK316BBJ226ML-T" (at 156.21 86.106 0)
      (effects (font (size 1.27 1.27)) hide)
    )
    (pin "1" (uuid d6a720c5-8eef-4858-96f4-f4fa76d760f2))
    (pin "2" (uuid 48435631-f0de-46b5-9c36-5926ce459956))
    (instances
      (project "504342-0019"
        (path "/0840d81d-806e-424c-8096-8b022e85cd22/9c1c14c4-bbc8-482e-962c-874daa331404"
          (reference "C2") (unit 1)
        )
      )
    )
  )

  (symbol (lib_id "Device:L") (at 149.86 69.85 90) (unit 1)
    (in_bom yes) (on_board yes) (dnp no)
    (uuid d973dca5-aa54-47a5-97fd-31b627744abb)
    (property "Reference" "L1" (at 146.05 67.31 90)
      (effects (font (size 1.27 1.27)))
    )
    (property "Value" "10u" (at 152.4 67.31 90)
      (effects (font (size 1.27 1.27)))
    )
    (property "Footprint" "BL_Inductors:L_Wuerth_LHMI-4020" (at 147.828 70.866 90)
      (effects (font (size 0.63 0.63)))
    )
    (property "Datasheet" "~" (at 149.86 69.85 0)
      (effects (font (size 1.27 1.27)) hide)
    )
    (property "MPN" "74437324100" (at 151.13 68.58 90)
      (effects (font (size 0.635 0.635)))
    )
    (pin "1" (uuid 8f0458ee-0869-4cef-8ed9-24e8db1c8c6d))
    (pin "2" (uuid 1b465730-b0f0-429a-8285-87d69a3694e3))
    (instances
      (project "504342-0019"
        (path "/0840d81d-806e-424c-8096-8b022e85cd22/9c1c14c4-bbc8-482e-962c-874daa331404"
          (reference "L1") (unit 1)
        )
      )
    )
  )

  (symbol (lib_id "Regulator_Switching:TPS62177DQC") (at 125.73 77.47 0) (unit 1)
    (in_bom yes) (on_board yes) (dnp no)
    (uuid de13cf42-8c18-43c8-b430-2d6995568dda)
    (property "Reference" "U1" (at 119.126 64.262 0)
      (effects (font (size 1.27 1.27)))
    )
    (property "Value" "TPS62177DQC" (at 124.714 66.04 0)
      (effects (font (size 1.27 1.27)))
    )
    (property "Footprint" "BL_Package_SON:WSON-10-1EP_2x3mm_P0.5mm_EP0.84x2.4mm_ThermalVias" (at 143.002 94.234 0)
      (effects (font (size 0.63 0.63)))
    )
    (property "Datasheet" "http://www.ti.com/lit/ds/symlink/tps62177.pdf" (at 125.73 63.5 0)
      (effects (font (size 1.27 1.27)) hide)
    )
    (pin "1" (uuid d5451e01-b50c-401d-893a-fe82e1264bf9))
    (pin "10" (uuid 78470ecf-4c85-411a-9f36-d52b6a3980d5))
    (pin "11" (uuid 32b52426-2374-45b3-96ed-c30f1da259df))
    (pin "2" (uuid 3e50f0cf-9a6f-41c5-94c5-41733f1a6327))
    (pin "3" (uuid 079d3354-c41c-4b06-9205-6556abcec8bb))
    (pin "4" (uuid d8922a31-d353-4d6a-bcaa-4d5f0bc0eaea))
    (pin "5" (uuid b7fb43f0-211b-4372-b37d-c55c8af776d6))
    (pin "6" (uuid 2a8d397b-3846-4249-a5bd-1c9fd55dbcbe))
    (pin "7" (uuid 2345c7dc-7bcb-43ba-99cc-39a1b325eebe))
    (pin "8" (uuid 26d917f8-225a-4570-9a65-0c71b08cc09f))
    (pin "9" (uuid 0ae5aae9-e05c-460a-be25-8950d729ad57))
    (instances
      (project "504342-0019"
        (path "/0840d81d-806e-424c-8096-8b022e85cd22/9c1c14c4-bbc8-482e-962c-874daa331404"
          (reference "U1") (unit 1)
        )
      )
    )
  )
)
